{
  "projectType": "library",
  "root": "libs/blog/feature/legal",
  "sourceRoot": "libs/blog/feature/legal/src",
  "prefix": "legal",
  "targets": {
    "test": {
      "executor": "@nrwl/jest:jest",
      "outputs": ["coverage/libs/blog/feature/legal"],
      "options": {
        "jestConfig": "libs/blog/feature/legal/jest.config.js",
        "passWithNoTests": true
      }
    },
    "lint": {
      "executor": "@nrwl/linter:eslint",
      "options": {
        "lintFilePatterns": [
          "libs/blog/feature/legal/src/**/*.ts",
          "libs/blog/feature/legal/src/**/*.html"
        ]
      }
    }
  },
  "tags": []
}
