{
  "projectType": "library",
  "root": "libs/blog/data-access/resources",
  "sourceRoot": "libs/blog/data-access/resources/src",
  "prefix": "christianrothe-dev",
  "targets": {
    "test": {
      "executor": "@nrwl/jest:jest",
      "outputs": ["coverage/libs/blog/data-access/resources"],
      "options": {
        "jestConfig": "libs/blog/data-access/resources/jest.config.js",
        "passWithNoTests": true
      }
    },
    "lint": {
      "executor": "@nrwl/linter:eslint",
      "options": {
        "lintFilePatterns": [
          "libs/blog/data-access/resources/src/**/*.ts",
          "libs/blog/data-access/resources/src/**/*.html"
        ]
      }
    }
  },
  "tags": []
}
